{"count":807,"next":"https://pokeapi.co/api/v2/pokemon-species/?offset=10&limit=10","previous":null,"results":[{"name":"bulbasaur","url":"https://pokeapi.co/api/v2/pokemon-species/1/"},{"name":"ivysaur","url":"https://pokeapi.co/api/v2/pokemon-species/2/"},{"name":"venusaur","url":"https://pokeapi.co/api/v2/pokemon-species/3/"},{"name":"charmander","url":"https://pokeapi.co/api/v2/pokemon-species/4/"},{"name":"charmeleon","url":"https://pokeapi.co/api/v2/pokemon-species/5/"},{"name":"charizard","url":"https://pokeapi.co/api/v2/pokemon-species/6/"},{"name":"squirtle","url":"https://pokeapi.co/api/v2/pokemon-species/7/"},{"name":"wartortle","url":"https://pokeapi.co/api/v2/pokemon-species/8/"},{"name":"blastoise","url":"https://pokeapi.co/api/v2/pokemon-species/9/"},{"name":"caterpie","url":"https://pokeapi.co/api/v2/pokemon-species/10/"}]}