{"count":807,"next":"https://pokeapi.co/api/v2/pokemon-species/?offset=20&limit=10","previous":"https://pokeapi.co/api/v2/pokemon-species/?offset=0&limit=10","results":[{"name":"metapod","url":"https://pokeapi.co/api/v2/pokemon-species/11/"},{"name":"butterfree","url":"https://pokeapi.co/api/v2/pokemon-species/12/"},{"name":"weedle","url":"https://pokeapi.co/api/v2/pokemon-species/13/"},{"name":"kakuna","url":"https://pokeapi.co/api/v2/pokemon-species/14/"},{"name":"beedrill","url":"https://pokeapi.co/api/v2/pokemon-species/15/"},{"name":"pidgey","url":"https://pokeapi.co/api/v2/pokemon-species/16/"},{"name":"pidgeotto","url":"https://pokeapi.co/api/v2/pokemon-species/17/"},{"name":"pidgeot","url":"https://pokeapi.co/api/v2/pokemon-species/18/"},{"name":"rattata","url":"https://pokeapi.co/api/v2/pokemon-species/19/"},{"name":"raticate","url":"https://pokeapi.co/api/v2/pokemon-species/20/"}]}