{"count":807,"next":"https://pokeapi.co/api/v2/pokemon-species/?offset=30&limit=10","previous":"https://pokeapi.co/api/v2/pokemon-species/?offset=10&limit=10","results":[{"name":"spearow","url":"https://pokeapi.co/api/v2/pokemon-species/21/"},{"name":"fearow","url":"https://pokeapi.co/api/v2/pokemon-species/22/"},{"name":"ekans","url":"https://pokeapi.co/api/v2/pokemon-species/23/"},{"name":"arbok","url":"https://pokeapi.co/api/v2/pokemon-species/24/"},{"name":"pikachu","url":"https://pokeapi.co/api/v2/pokemon-species/25/"},{"name":"raichu","url":"https://pokeapi.co/api/v2/pokemon-species/26/"},{"name":"sandshrew","url":"https://pokeapi.co/api/v2/pokemon-species/27/"},{"name":"sandslash","url":"https://pokeapi.co/api/v2/pokemon-species/28/"},{"name":"nidoran-f","url":"https://pokeapi.co/api/v2/pokemon-species/29/"},{"name":"nidorina","url":"https://pokeapi.co/api/v2/pokemon-species/30/"}]}