{"count":807,"next":"https://pokeapi.co/api/v2/pokemon-species/?offset=50&limit=10","previous":"https://pokeapi.co/api/v2/pokemon-species/?offset=30&limit=10","results":[{"name":"zubat","url":"https://pokeapi.co/api/v2/pokemon-species/41/"},{"name":"golbat","url":"https://pokeapi.co/api/v2/pokemon-species/42/"},{"name":"oddish","url":"https://pokeapi.co/api/v2/pokemon-species/43/"},{"name":"gloom","url":"https://pokeapi.co/api/v2/pokemon-species/44/"},{"name":"vileplume","url":"https://pokeapi.co/api/v2/pokemon-species/45/"},{"name":"paras","url":"https://pokeapi.co/api/v2/pokemon-species/46/"},{"name":"parasect","url":"https://pokeapi.co/api/v2/pokemon-species/47/"},{"name":"venonat","url":"https://pokeapi.co/api/v2/pokemon-species/48/"},{"name":"venomoth","url":"https://pokeapi.co/api/v2/pokemon-species/49/"},{"name":"diglett","url":"https://pokeapi.co/api/v2/pokemon-species/50/"}]}